…
``` r
print(ov_month)
```

    ## # A tibble: 36 × 6
    ## # Groups:   month [12]
    ##    month fuel   average   min   max median
    ##    <int> <chr>    <dbl> <dbl> <dbl>  <dbl>
    ##  1     1 diesel    1.60  1.05  1.96   1.60
    ##  2     1 e10       1.68  1.09  2.05   1.67
    ##  3     1 e5        1.73  1.12  2.11   1.73
    ##  4     2 diesel    1.67  1.07  2.04   1.66
    ##  5     2 e10       1.75  1.13  2.11   1.74
    ##  6     2 e5        1.81  1.16  2.17   1.80
    ##  7     3 diesel    2.14  1.27  2.46   2.14
    ##  8     3 e10       2.06  1.08  3.84   2.06
    ##  9     3 e5        2.12  1.12  3.61   2.12
    ## 10     4 diesel    2.02  1.38  2.45   2.02
    ## # ℹ 26 more rows
…
``` r
print(ov_year_month)
```

    ## # A tibble: 321 × 7
    ## # Groups:   year, month [107]
    ##     year month fuel   average   min   max median
    ##    <int> <int> <chr>    <dbl> <dbl> <dbl>  <dbl>
    ##  1  2014     6 diesel    1.39  1.13  1.54   1.39
    ##  2  2014     6 e10       1.57  1.01  2.00   1.56
    ##  3  2014     6 e5        1.60  1.28  2      1.60
    ##  4  2014     7 diesel    1.38  1.08  1.89   1.38
    ##  5  2014     7 e10       1.55  1.05  2.00   1.55
    ##  6  2014     7 e5        1.59  1.08  1.89   1.59
    ##  7  2014     8 diesel    1.37  1.01  2      1.37
    ##  8  2014     8 e10       1.53  1.06  2      1.53
    ##  9  2014     8 e5        1.57  1.00  2      1.57
    ## 10  2014     9 diesel    1.37  1.04  2      1.37
    ## # ℹ 311 more rows
…
